Quant Vax Cards
…
vax_score_tibble <- vax_score_tibble |>
  select(group, dob, age_rounded, desired_vax_score) 
vax_score_tibble

# A tibble: 270 × 4
   group dob        age_rounded desired_vax_score
   <chr> <date>           <dbl>             <dbl>
 1 A1.1  2018-06-25         5.9                19
 2 A1.2  2015-05-29         9                  19
 3 A2.1  2016-04-16         8.1                19
 4 A4    2021-03-27         3.2                18
 5 A5.1  2020-10-21         3.6                18
 6 A5.2  2021-11-23         2.5                18
 7 A5.3  2023-08-28         0.7                13
 8 A6    2022-09-18         1.7                18
 9 A7    2019-03-05         5.2                19
10 A8.1  2023-01-16         1.3                15
# ℹ 260 more rows
…
vaccine_final <- vaccine_final |>
  rowwise() |>
  mutate(yes_count = sum(c_across(hep_b_status:tetanus_dip_status) == "YES"))
print(vaccine_final)

# A tibble: 270 × 27
# Rowwise: 
   survey_date group child_gender child_dob  hep_b_status bcg_status
   <date>      <chr> <chr>        <date>     <chr>        <chr>     
 1 2024-05-21  A1.1  F            2018-06-25 YES          YES       
 2 2024-05-21  A1.2  M            2015-05-29 YES          YES       
 3 2024-05-21  A2.1  F            2016-04-16 YES          YES       
 4 2024-05-21  A4    M            2021-03-27 YES          YES       
 5 2024-05-21  A5.1  F            2020-10-21 YES          YES       
 6 2024-05-21  A5.2  F            2021-11-23 YES          YES       
 7 2024-05-21  A5.3  M            2023-08-28 YES          YES       
 8 2024-05-21  A6    F            2022-09-18 YES          YES       
 9 2024-05-21  A7    M            2019-03-05 YES          YES       
10 2024-05-22  A8.1  F            2023-01-16 YES          YES       
# ℹ 260 more rows
# ℹ 21 more variables: polio_vpi1_status <chr>, polio_vpi2_status <chr>,
#   polio_vop1_status <chr>, polio_vop2_status <chr>, polio_vop3_status <chr>,
#   penta1_status <chr>, penta2_status <chr>, penta3_status <chr>,
#   neumo1_status <chr>, neumo2_status <chr>, neumo3_status <chr>,
#   rota1_status <chr>, rota2_status <chr>, srp1_status <chr>,
#   srp2_status <chr>, hep_a_status <chr>, dpt1_status <chr>, …
vaccine_final <- vaccine_final |>
  rename(dob = child_dob)

actual_vax_score <- vaccine_final |>
  as_tibble() |>
  select(group, dob, yes_count)

joined_vax_cards <- actual_vax_score |>
  left_join(vax_score_tibble, by = join_by(group))

joined_vax_cards <- joined_vax_cards |>
  mutate(complete = if_else(yes_count >= desired_vax_score, TRUE, FALSE))
joined_vax_cards

# A tibble: 270 × 7
   group dob.x      yes_count dob.y      age_rounded desired_vax_score complete
   <chr> <date>         <int> <date>           <dbl>             <dbl> <lgl>   
 1 A1.1  2018-06-25        18 2018-06-25         5.9                19 FALSE   
 2 A1.2  2015-05-29        17 2015-05-29         9                  19 FALSE   
 3 A2.1  2016-04-16        15 2016-04-16         8.1                19 FALSE   
 4 A4    2021-03-27        16 2021-03-27         3.2                18 FALSE   
 5 A5.1  2020-10-21        18 2020-10-21         3.6                18 TRUE    
 6 A5.2  2021-11-23        16 2021-11-23         2.5                18 FALSE   
 7 A5.3  2023-08-28        15 2023-08-28         0.7                13 TRUE    
 8 A6    2022-09-18        18 2022-09-18         1.7                18 TRUE    
 9 A7    2019-03-05        18 2019-03-05         5.2                19 FALSE   
10 A8.1  2023-01-16        15 2023-01-16         1.3                15 TRUE    
# ℹ 260 more rows
…
